{
  "name": "Hasvariant",
  "options": {
    "idInjection": false,
    "mysql": {
      "schema": "test2",
      "table": "hasvariant"
    },
    "relations": {
      "goodhasvariantFkrel": {
        "model": "Good",
        "type": "belongsTo",
        "foreignKey": "goodid"
      },
      "varianthasvariantFkrel": {
        "model": "Variant",
        "type": "belongsTo",
        "foreignKey": "variantid"
      }
    },
    "methods": {
      "destory": {
        "accepts": [
          {"arg": "goodid", "type": "number", "required" : true},
          {"arg": "variantid", "type": "number", "required" : true},
          {"arg": "options", "type": "object", "http": "optionsFromRequest"}
        ],
        "http": {"verb": "POST", "path": "/destory/:name"}
      }
    }
  },
  "properties": {
    "goodid": {
      "type": "Number",
      "id": 1,
      "required": true,
      "length": null,
      "precision": 10,
      "scale": 0,
      "mysql": {
        "columnName": "goodid",
        "dataType": "int",
        "dataLength": null,
        "dataPrecision": 10,
        "dataScale": 0,
        "nullable": "N"
      }
    },
    "variantid": {
      "type": "Number",
      "id": 2,
      "required": true,
      "length": null,
      "precision": 10,
      "scale": 0,
      "mysql": {
        "columnName": "variantid",
        "dataType": "int",
        "dataLength": null,
        "dataPrecision": 10,
        "dataScale": 0,
        "nullable": "N"
      }
    }
  },
  "validations": [],
  "relations": {},
  "acls": [],
  "methods": {}
}
